07_analysis_3
…
ℹ Use `spec()` to retrieve the full column specification for this data.
ℹ Specify the column types or set `show_col_types = FALSE` to quiet this message.

Analysis

Nest data

mbc_log2_transformed_nested <- mbc_log2_transformed |> # define new tbl
  group_by(gene) |> # group by name
  nest() # nest data by each gene

# view nested data
mbc_log2_transformed_nested

# A tibble: 784 × 2
# Groups:   gene [784]
   gene    data              
   <chr>   <list>            
 1 CCNO    <tibble [10 × 13]>
 2 MYC     <tibble [10 × 13]>
 3 CD79A   <tibble [10 × 13]>
 4 FSTL3   <tibble [10 × 13]>
 5 VCAN    <tibble [10 × 13]>
 6 CX3CL1  <tibble [10 × 13]>
 7 ERBB2   <tibble [10 × 13]>
 8 FAM124B <tibble [10 × 13]>
 9 AKT1    <tibble [10 × 13]>
10 KDR     <tibble [10 × 13]>
# ℹ 774 more rows

Fitting linear models for log2-transformed values by treatment

mbc_log2_transformed_nested <- mbc_log2_transformed_nested |> 
  mutate(model_object = map( # add a model_object column
    .x = data, # use data column as input
    .f = ~lm(formula = log2_count_value ~ bin_treatment, # model log2 transformed values based on treatment
             data = .x)))

# view new nested data with lm results
mbc_log2_transformed_nested

# A tibble: 784 × 3
# Groups:   gene [784]
   gene    data               model_object
   <chr>   <list>             <list>      
 1 CCNO    <tibble [10 × 13]> <lm>        
 2 MYC     <tibble [10 × 13]> <lm>        
 3 CD79A   <tibble [10 × 13]> <lm>        
 4 FSTL3   <tibble [10 × 13]> <lm>        
 5 VCAN    <tibble [10 × 13]> <lm>        
 6 CX3CL1  <tibble [10 × 13]> <lm>        
 7 ERBB2   <tibble [10 × 13]> <lm>        
 8 FAM124B <tibble [10 × 13]> <lm>        
 9 AKT1    <tibble [10 × 13]> <lm>        
10 KDR     <tibble [10 × 13]> <lm>        
# ℹ 774 more rows

Tidying linear model results with confidence intervals

mbc_log2_transformed_nested <- mbc_log2_transformed_nested |> 
  mutate(model_object_tidy = map( # add a tidy model_object column
    .x = model_object,
    .f = ~tidy(x = .x,
               conf.int = TRUE,
               conf.level = 0.95)))
# view new nested data with tidy lm results
mbc_log2_transformed_nested

# A tibble: 784 × 4
# Groups:   gene [784]
   gene    data               model_object model_object_tidy
   <chr>   <list>             <list>       <list>           
 1 CCNO    <tibble [10 × 13]> <lm>         <tibble [2 × 7]> 
 2 MYC     <tibble [10 × 13]> <lm>         <tibble [2 × 7]> 
 3 CD79A   <tibble [10 × 13]> <lm>         <tibble [2 × 7]> 
 4 FSTL3   <tibble [10 × 13]> <lm>         <tibble [2 × 7]> 
 5 VCAN    <tibble [10 × 13]> <lm>         <tibble [2 × 7]> 
 6 CX3CL1  <tibble [10 × 13]> <lm>         <tibble [2 × 7]> 
 7 ERBB2   <tibble [10 × 13]> <lm>         <tibble [2 × 7]> 
 8 FAM124B <tibble [10 × 13]> <lm>         <tibble [2 × 7]> 
 9 AKT1    <tibble [10 × 13]> <lm>         <tibble [2 × 7]> 
10 KDR     <tibble [10 × 13]> <lm>         <tibble [2 × 7]> 
# ℹ 774 more rows

Unnesting tidy linear model results

estimates <- mbc_log2_transformed_nested |> 
  unnest(model_object_tidy) # unnest nested tbl
estimates

# A tibble: 1,568 × 10
# Groups:   gene [784]
   gene  data     model_object term         estimate std.error statistic p.value
   <chr> <list>   <list>       <chr>           <dbl>     <dbl>     <dbl>   <dbl>
 1 CCNO  <tibble> <lm>         (Intercept)    5.73       0.699    8.19   7.84e-5
 2 CCNO  <tibble> <lm>         bin_treatme…  -1.62       0.938   -1.73   1.27e-1
 3 MYC   <tibble> <lm>         (Intercept)    7.83       0.707   11.1    1.08e-5
 4 MYC   <tibble> <lm>         bin_treatme…  -0.184      0.949   -0.194  8.52e-1
 5 CD79A <tibble> <lm>         (Intercept)    4.78       0.388   12.3    1.73e-5
 6 CD79A <tibble> <lm>         bin_treatme…  -1.15       0.548   -2.09   8.12e-2
 7 FSTL3 <tibble> <lm>         (Intercept)    6.13       0.366   16.8    6.58e-7
 8 FSTL3 <tibble> <lm>         bin_treatme…   0.0134     0.549    0.0243 9.81e-1
 9 VCAN  <tibble> <lm>         (Intercept)   11.5        0.522   21.9    1.03e-7
10 VCAN  <tibble> <lm>         bin_treatme…  -0.273      0.783   -0.349  7.38e-1
# ℹ 1,558 more rows
# ℹ 2 more variables: conf.low <dbl>, conf.high <dbl>
Filtering and selecting treatment effects from linear model estimates

estimates <- estimates |> 
  filter(term == "bin_treatment") |> # choose only "treatment"
  select(gene, # select variables of interest
         p.value, 
         estimate, 
         conf.low, 
         conf.high) |> 
  ungroup() # ungroup tbl

# view result
estimates

# A tibble: 784 × 5
   gene    p.value estimate conf.low conf.high
   <chr>     <dbl>    <dbl>    <dbl>     <dbl>
 1 CCNO     0.127   -1.62      -3.84     0.595
 2 MYC      0.852   -0.184     -2.43     2.06 
 3 CD79A    0.0812  -1.15      -2.49     0.193
 4 FSTL3    0.981    0.0134    -1.28     1.31 
 5 VCAN     0.738   -0.273     -2.13     1.58 
 6 CX3CL1   0.923   -0.0653    -1.66     1.53 
 7 ERBB2    0.321   -1.14      -3.67     1.39 
 8 FAM124B  0.414   -0.482     -1.79     0.829
 9 AKT1     0.145   -1.15      -2.81     0.508
10 KDR      0.433   -0.549     -2.15     1.05 
# ℹ 774 more rows
…
